%YAML 1.1
%TAG !u! tag:unity3d.com,2011:
--- !u!114 &11400000
MonoBehaviour:
  m_ObjectHideFlags: 0
  m_CorrespondingSourceObject: {fileID: 0}
  m_PrefabInstance: {fileID: 0}
  m_PrefabAsset: {fileID: 0}
  m_GameObject: {fileID: 0}
  m_Enabled: 1
  m_EditorHideFlags: 0
  m_Script: {fileID: 11500000, guid: f218be9518d33904abcd2331a665e74d, type: 3}
  m_Name: Pergunta_125
  m_EditorClassIdentifier: 
  _info: "Em rela\xE7\xE3o \xE0 contra\xE7\xE3o do diafragma, qual a alternativa que
    melhor descreve seu funcionamento?"
  _answers:
  - _info: "\xC9 ativo na inspira\xE7\xE3o e tamb\xE9m na expira\xE7\xE3o"
    _isCorrect: 0
  - _info: "\xC9 ativo na inspira\xE7\xE3o e passivo na expira\xE7\xE3o"
    _isCorrect: 1
  - _info: "\xC9 passivo na inspira\xE7\xE3o e tamb\xE9m na expira\xE7\xE3o"
    _isCorrect: 0
  - _info: "\xC9 passivo na inspira\xE7\xE3o e ativo na expira\xE7\xE3o"
    _isCorrect: 0
  _useTimer: 1
  _timer: 10
  _answerType: 1
  _addScore: 10
  _questionImage: {fileID: 0}
