%YAML 1.1
%TAG !u! tag:unity3d.com,2011:
--- !u!114 &11400000
MonoBehaviour:
  m_ObjectHideFlags: 0
  m_CorrespondingSourceObject: {fileID: 0}
  m_PrefabInstance: {fileID: 0}
  m_PrefabAsset: {fileID: 0}
  m_GameObject: {fileID: 0}
  m_Enabled: 1
  m_EditorHideFlags: 0
  m_Script: {fileID: 11500000, guid: f218be9518d33904abcd2331a665e74d, type: 3}
  m_Name: Pergunta_163
  m_EditorClassIdentifier: 
  _info: "Qual das seguintes afirma\xE7\xF5es est\xE1 de acordo com a teoria contratual
    de Thomas Hobbes?"
  _answers:
  - _info: "O homem em seu estado natural \xE9 livre e bondoso "
    _isCorrect: 0
  - _info: O Estado existe para o homem produzir igualdade
    _isCorrect: 0
  - _info: O Estado existe para evitar que o homem se auto destrua
    _isCorrect: 1
  - _info: "O Estado existe para garantir os direitos \xE0 liberdade e \xE0 propriedade"
    _isCorrect: 0
  _useTimer: 1
  _timer: 10
  _answerType: 1
  _addScore: 10
  _questionImage: {fileID: 0}
