%YAML 1.1
%TAG !u! tag:unity3d.com,2011:
--- !u!114 &11400000
MonoBehaviour:
  m_ObjectHideFlags: 0
  m_CorrespondingSourceObject: {fileID: 0}
  m_PrefabInstance: {fileID: 0}
  m_PrefabAsset: {fileID: 0}
  m_GameObject: {fileID: 0}
  m_Enabled: 1
  m_EditorHideFlags: 0
  m_Script: {fileID: 11500000, guid: f218be9518d33904abcd2331a665e74d, type: 3}
  m_Name: Pergunta_41
  m_EditorClassIdentifier: 
  _info: "Como \xE9 controlada a polui\xE7\xE3o do petr\xF3leo quando o vazamento
    dele atinge a areia da praia?"
  _answers:
  - _info: "Retira-se a areia contaminada para ser separada do petr\xF3leo"
    _isCorrect: 1
  - _info: Joga-se a areia contaminada no mar
    _isCorrect: 0
  - _info: "Filtra-se a areia com o petr\xF3leo"
    _isCorrect: 0
  - _info: "Apenas isolam a \xE1rea"
    _isCorrect: 0
  _useTimer: 1
  _timer: 10
  _answerType: 1
  _addScore: 10
  _questionImage: {fileID: 0}
