%YAML 1.1
%TAG !u! tag:unity3d.com,2011:
--- !u!114 &11400000
MonoBehaviour:
  m_ObjectHideFlags: 0
  m_CorrespondingSourceObject: {fileID: 0}
  m_PrefabInstance: {fileID: 0}
  m_PrefabAsset: {fileID: 0}
  m_GameObject: {fileID: 0}
  m_Enabled: 1
  m_EditorHideFlags: 0
  m_Script: {fileID: 11500000, guid: f218be9518d33904abcd2331a665e74d, type: 3}
  m_Name: Pergunta_46
  m_EditorClassIdentifier: 
  _info: "O que \xE9 a eutrofiza\xE7\xE3o?"
  _answers:
  - _info: "Crescimento excessivo de algas na superf\xEDcie, causando a oxigena\xE7\xE3o
      exagerada das \xE1guas"
    _isCorrect: 0
  - _info: "Crescimento excessivo de algas na superf\xEDcie, impedindo a oxigena\xE7\xE3o
      das \xE1guas profundas"
    _isCorrect: 1
  - _info: "Derramamento de sedimentos s\xF3lidos, diminuindo o n\xEDvel de \xE1gua"
    _isCorrect: 0
  - _info: "Superpopula\xE7\xE3o de peixes, devido ao derramamento de nutrientes nas
      \xE1guas "
    _isCorrect: 0
  _useTimer: 1
  _timer: 10
  _answerType: 1
  _addScore: 10
  _questionImage: {fileID: 0}
