%YAML 1.1
%TAG !u! tag:unity3d.com,2011:
--- !u!114 &11400000
MonoBehaviour:
  m_ObjectHideFlags: 0
  m_CorrespondingSourceObject: {fileID: 0}
  m_PrefabInstance: {fileID: 0}
  m_PrefabAsset: {fileID: 0}
  m_GameObject: {fileID: 0}
  m_Enabled: 1
  m_EditorHideFlags: 0
  m_Script: {fileID: 11500000, guid: f218be9518d33904abcd2331a665e74d, type: 3}
  m_Name: Pergunta_402
  m_EditorClassIdentifier: 
  _info: Qual foi a medida tomada pela Inglaterra para frear o desenvolvimento industrial
    americano?
  _answers:
  - _info: Declarou os Estados Unidos independente da Inglaterra
    _isCorrect: 0
  - _info: "Aumento dos impostos na regi\xE3o sul do pa\xEDs, que era a mais industrial"
    _isCorrect: 0
  - _info: Arrocho colonial, que consistia no aumento de impostos e fechamento dos
      portos
    _isCorrect: 1
  - _info: "Incentivo para o norte do pa\xEDs, que era predominantemente agr\xE1rio"
    _isCorrect: 0
  _useTimer: 1
  _timer: 10
  _answerType: 1
  _addScore: 10
  _questionImage: {fileID: 0}
