%YAML 1.1
%TAG !u! tag:unity3d.com,2011:
--- !u!114 &11400000
MonoBehaviour:
  m_ObjectHideFlags: 0
  m_CorrespondingSourceObject: {fileID: 0}
  m_PrefabInstance: {fileID: 0}
  m_PrefabAsset: {fileID: 0}
  m_GameObject: {fileID: 0}
  m_Enabled: 1
  m_EditorHideFlags: 0
  m_Script: {fileID: 11500000, guid: f218be9518d33904abcd2331a665e74d, type: 3}
  m_Name: Pergunta_6
  m_EditorClassIdentifier: 
  _info: "Qual \xE9 a caracter\xEDstica dos Amino\xE1cidos Essenciais?"
  _answers:
  - _info: "O fato deles serem adquiridos apenas pela alimenta\xE7\xE3o"
    _isCorrect: 1
  - _info: O fato de serem produzidas pelo metabolismo humano
    _isCorrect: 0
  - _info: "O fato de produzirem prote\xEDnas"
    _isCorrect: 0
  - _info: "O fato de produzirem horm\xF4nios"
    _isCorrect: 0
  _useTimer: 1
  _timer: 10
  _answerType: 1
  _addScore: 10
  _questionImage: {fileID: 0}
