%YAML 1.1
%TAG !u! tag:unity3d.com,2011:
--- !u!114 &11400000
MonoBehaviour:
  m_ObjectHideFlags: 0
  m_CorrespondingSourceObject: {fileID: 0}
  m_PrefabInstance: {fileID: 0}
  m_PrefabAsset: {fileID: 0}
  m_GameObject: {fileID: 0}
  m_Enabled: 1
  m_EditorHideFlags: 0
  m_Script: {fileID: 11500000, guid: f218be9518d33904abcd2331a665e74d, type: 3}
  m_Name: Pergunta_190
  m_EditorClassIdentifier: 
  _info: "A segunda Lei de Newton diz respeito \xE0 que?"
  _answers:
  - _info: "\xC0 for\xE7a, dependente diretamente da massa e acelera\xE7\xE3o do corpo "
    _isCorrect: 1
  - _info: "A\xE7\xE3o e rea\xE7\xE3o"
    _isCorrect: 0
  - _info: "In\xE9rcia dos corpos"
    _isCorrect: 0
  - _info: "Trabalho realizado por uma for\xE7a"
    _isCorrect: 0
  _useTimer: 1
  _timer: 10
  _answerType: 1
  _addScore: 10
  _questionImage: {fileID: 0}
