%YAML 1.1
%TAG !u! tag:unity3d.com,2011:
--- !u!114 &11400000
MonoBehaviour:
  m_ObjectHideFlags: 0
  m_CorrespondingSourceObject: {fileID: 0}
  m_PrefabInstance: {fileID: 0}
  m_PrefabAsset: {fileID: 0}
  m_GameObject: {fileID: 0}
  m_Enabled: 1
  m_EditorHideFlags: 0
  m_Script: {fileID: 11500000, guid: f218be9518d33904abcd2331a665e74d, type: 3}
  m_Name: Pergunta_407
  m_EditorClassIdentifier: 
  _info: "Qual o principal objetivo das Teses de Abril, feitas por L\xEAnin?"
  _answers:
  - _info: A volta do sistema Monarquista
    _isCorrect: 0
  - _info: O fim do czarismo
    _isCorrect: 0
  - _info: "A implanta\xE7\xE3o do socialismo na R\xFAssia"
    _isCorrect: 1
  - _info: "Manuten\xE7\xE3o do Governo Provis\xF3rio"
    _isCorrect: 0
  _useTimer: 1
  _timer: 10
  _answerType: 1
  _addScore: 10
  _questionImage: {fileID: 0}
