%YAML 1.1
%TAG !u! tag:unity3d.com,2011:
--- !u!114 &11400000
MonoBehaviour:
  m_ObjectHideFlags: 0
  m_CorrespondingSourceObject: {fileID: 0}
  m_PrefabInstance: {fileID: 0}
  m_PrefabAsset: {fileID: 0}
  m_GameObject: {fileID: 0}
  m_Enabled: 1
  m_EditorHideFlags: 0
  m_Script: {fileID: 11500000, guid: f218be9518d33904abcd2331a665e74d, type: 3}
  m_Name: Pergunta_263
  m_EditorClassIdentifier: 
  _info: "A respeito da gera\xE7\xE3o de energia el\xE9trica por meio das hidroel\xE9tricas,
    marque a alternativa correta"
  _answers:
  - _info: "A \xE1gua deve ser armazenada o mais distante poss\xEDvel das turbinas
      para que possa existir a possibilidade de alta velocidade com for\xE7a suficiente
      para girar as turbinas"
    _isCorrect: 0
  - _info: "A \xE1gua gira as turbinas para que, por meio do fen\xF4meno da indu\xE7\xE3o
      eletromagn\xE9tica, a energia el\xE9trica possa ser gerada"
    _isCorrect: 1
  - _info: "Quanto mais alta for a barragem da hidroel\xE9trica, menor ser\xE1 a energia
      potencial gravitacional e maior ser\xE1 a velocidade dada \xE0 \xE1gua para
      girar as turbinas"
    _isCorrect: 0
  - _info: "No Brasil, as \xFAnicas formas de gera\xE7\xE3o de energia s\xE3o as hidroel\xE9tricas
      e as termel\xE9tricas"
    _isCorrect: 0
  _useTimer: 1
  _timer: 10
  _answerType: 1
  _addScore: 10
  _questionImage: {fileID: 0}
