%YAML 1.1
%TAG !u! tag:unity3d.com,2011:
--- !u!114 &11400000
MonoBehaviour:
  m_ObjectHideFlags: 0
  m_CorrespondingSourceObject: {fileID: 0}
  m_PrefabInstance: {fileID: 0}
  m_PrefabAsset: {fileID: 0}
  m_GameObject: {fileID: 0}
  m_Enabled: 1
  m_EditorHideFlags: 0
  m_Script: {fileID: 11500000, guid: f218be9518d33904abcd2331a665e74d, type: 3}
  m_Name: Pergunta_246
  m_EditorClassIdentifier: 
  _info: "O que acontece com a DDP em associa\xE7\xE3o de resistores em paralelo?"
  _answers:
  - _info: Permanece constante
    _isCorrect: 1
  - _info: "Aumenta diretamente proporcional \xE0 resist\xEAncia"
    _isCorrect: 0
  - _info: "Aumenta inversamente proporcional \xE0 resist\xEAncia"
    _isCorrect: 0
  - _info: "Reduz inversamente proporcional \xE0 resist\xEAncia"
    _isCorrect: 0
  _useTimer: 1
  _timer: 10
  _answerType: 1
  _addScore: 10
  _questionImage: {fileID: 0}
