%YAML 1.1
%TAG !u! tag:unity3d.com,2011:
--- !u!114 &11400000
MonoBehaviour:
  m_ObjectHideFlags: 0
  m_CorrespondingSourceObject: {fileID: 0}
  m_PrefabInstance: {fileID: 0}
  m_PrefabAsset: {fileID: 0}
  m_GameObject: {fileID: 0}
  m_Enabled: 1
  m_EditorHideFlags: 0
  m_Script: {fileID: 11500000, guid: f218be9518d33904abcd2331a665e74d, type: 3}
  m_Name: Pergunta_260
  m_EditorClassIdentifier: 
  _info: "Qual dos componentes abaixo \xE9 semelhante a baterias no que diz respeito
    ao ac\xFAmulo de energia? "
  _answers:
  - _info: Capacitores
    _isCorrect: 1
  - _info: Resistores
    _isCorrect: 0
  - _info: Transformadores
    _isCorrect: 0
  - _info: Disjuntores
    _isCorrect: 0
  _useTimer: 1
  _timer: 10
  _answerType: 1
  _addScore: 10
  _questionImage: {fileID: 0}
