%YAML 1.1
%TAG !u! tag:unity3d.com,2011:
--- !u!114 &11400000
MonoBehaviour:
  m_ObjectHideFlags: 0
  m_CorrespondingSourceObject: {fileID: 0}
  m_PrefabInstance: {fileID: 0}
  m_PrefabAsset: {fileID: 0}
  m_GameObject: {fileID: 0}
  m_Enabled: 1
  m_EditorHideFlags: 0
  m_Script: {fileID: 11500000, guid: f218be9518d33904abcd2331a665e74d, type: 3}
  m_Name: Pergunta_203
  m_EditorClassIdentifier: 
  _info: "Uma onda originada no ar, quando se propaga para a \xE1gua, tem sua frequ\xEAncia:"
  _answers:
  - _info: "duplicada, se a raz\xE3o entre as velocidades de propaga\xE7\xE3o nos
      meios de origem e destino for 0,5"
    _isCorrect: 0
  - _info: "reduzida pela metade, se a raz\xE3o entre as velocidades de propaga\xE7\xE3o
      nos meios de origem e destino for 0,5"
    _isCorrect: 0
  - _info: inalterada
    _isCorrect: 1
  - _info: mantida apenas se a onda muda de meio transversalmente
    _isCorrect: 0
  _useTimer: 1
  _timer: 10
  _answerType: 1
  _addScore: 10
  _questionImage: {fileID: 0}
