%YAML 1.1
%TAG !u! tag:unity3d.com,2011:
--- !u!114 &11400000
MonoBehaviour:
  m_ObjectHideFlags: 0
  m_CorrespondingSourceObject: {fileID: 0}
  m_PrefabInstance: {fileID: 0}
  m_PrefabAsset: {fileID: 0}
  m_GameObject: {fileID: 0}
  m_Enabled: 1
  m_EditorHideFlags: 0
  m_Script: {fileID: 11500000, guid: f218be9518d33904abcd2331a665e74d, type: 3}
  m_Name: Pergunta_173
  m_EditorClassIdentifier: 
  _info: "Qual \xE9 a frase conhecida de Voltaire?"
  _answers:
  - _info: '"""Quanto menos os homens pensam, mais eles falam"""'
    _isCorrect: 0
  - _info: "\"\"\"O despotismo, por pior que seja, \xE9 prefer\xEDvel ao mal maior
      da Anarquia\"\"\""
    _isCorrect: 0
  - _info: "\"\"\"N\xE3o existem m\xE9todos f\xE1ceis para resolver problemas dif\xEDceis\"\"\""
    _isCorrect: 0
  - _info: "\"\"\"Posso n\xE3o concordar com suas palavras, mas defenderei at\xE9
      a morte o direito de diz\xEA-las\"\"\""
    _isCorrect: 1
  _useTimer: 1
  _timer: 10
  _answerType: 1
  _addScore: 10
  _questionImage: {fileID: 0}
