%YAML 1.1
%TAG !u! tag:unity3d.com,2011:
--- !u!114 &11400000
MonoBehaviour:
  m_ObjectHideFlags: 0
  m_CorrespondingSourceObject: {fileID: 0}
  m_PrefabInstance: {fileID: 0}
  m_PrefabAsset: {fileID: 0}
  m_GameObject: {fileID: 0}
  m_Enabled: 1
  m_EditorHideFlags: 0
  m_Script: {fileID: 11500000, guid: f218be9518d33904abcd2331a665e74d, type: 3}
  m_Name: Pergunta_137
  m_EditorClassIdentifier: 
  _info: "\xBFQu\xE9 frase presenta el verbo SER en el presente del indicativo? "
  _answers:
  - _info: "Ella es la m\xE1s guapa de la clase"
    _isCorrect: 1
  - _info: "Ella fue la que gan\xF3 el primer premio"
    _isCorrect: 0
  - _info: "Ella ser\xE1 la \xFAnica mujer en el cine"
    _isCorrect: 0
  - _info: "Ella ser\xEDa la primera ganadora del Oscar"
    _isCorrect: 0
  _useTimer: 1
  _timer: 10
  _answerType: 1
  _addScore: 10
  _questionImage: {fileID: 0}
