%YAML 1.1
%TAG !u! tag:unity3d.com,2011:
--- !u!114 &11400000
MonoBehaviour:
  m_ObjectHideFlags: 0
  m_CorrespondingSourceObject: {fileID: 0}
  m_PrefabInstance: {fileID: 0}
  m_PrefabAsset: {fileID: 0}
  m_GameObject: {fileID: 0}
  m_Enabled: 1
  m_EditorHideFlags: 0
  m_Script: {fileID: 11500000, guid: f218be9518d33904abcd2331a665e74d, type: 3}
  m_Name: Pergunta_136
  m_EditorClassIdentifier: 
  _info: "Seg\xFAn la regla de uso de los pronombres TU y USTED, \xBFcu\xE1l la opci\xF3n
    correcta? "
  _answers:
  - _info: '"""Tu"" es formal "'
    _isCorrect: 0
  - _info: '"""Usted"" es informal "'
    _isCorrect: 0
  - _info: '"""Tu"" es informal y ""usted"" es formal"'
    _isCorrect: 1
  - _info: 'Ambos tienen el mismo uso '
    _isCorrect: 0
  _useTimer: 1
  _timer: 10
  _answerType: 1
  _addScore: 10
  _questionImage: {fileID: 0}
