%YAML 1.1
%TAG !u! tag:unity3d.com,2011:
--- !u!114 &11400000
MonoBehaviour:
  m_ObjectHideFlags: 0
  m_CorrespondingSourceObject: {fileID: 0}
  m_PrefabInstance: {fileID: 0}
  m_PrefabAsset: {fileID: 0}
  m_GameObject: {fileID: 0}
  m_Enabled: 1
  m_EditorHideFlags: 0
  m_Script: {fileID: 11500000, guid: f218be9518d33904abcd2331a665e74d, type: 3}
  m_Name: Pergunta_466
  m_EditorClassIdentifier: 
  _info: "Se x e y s\xE3o n\xFAmeros inteiros e positivos, tais que x\xB2 - y\xB2
    = 17, ent\xE3o"
  _answers:
  - _info: "x e y s\xE3o primos entre si"
    _isCorrect: 1
  - _info: x = 2y
    _isCorrect: 0
  - _info: x = 3y
    _isCorrect: 0
  - _info: '|x - y| = 2'
    _isCorrect: 0
  _useTimer: 1
  _timer: 10
  _answerType: 1
  _addScore: 10
  _questionImage: {fileID: 0}
