%YAML 1.1
%TAG !u! tag:unity3d.com,2011:
--- !u!114 &11400000
MonoBehaviour:
  m_ObjectHideFlags: 0
  m_CorrespondingSourceObject: {fileID: 0}
  m_PrefabInstance: {fileID: 0}
  m_PrefabAsset: {fileID: 0}
  m_GameObject: {fileID: 0}
  m_Enabled: 1
  m_EditorHideFlags: 0
  m_Script: {fileID: 11500000, guid: f218be9518d33904abcd2331a665e74d, type: 3}
  m_Name: Pergunta_443
  m_EditorClassIdentifier: 
  _info: "Quem foi a refer\xEAncia brasileira do Dada\xEDsmo?"
  _answers:
  - _info: Carlos Drummond de Andrade
    _isCorrect: 0
  - _info: Mario Quintana
    _isCorrect: 0
  - _info: Oswald de Andrade
    _isCorrect: 0
  - _info: Mario de Andrade
    _isCorrect: 1
  _useTimer: 1
  _timer: 10
  _answerType: 1
  _addScore: 10
  _questionImage: {fileID: 0}
