%YAML 1.1
%TAG !u! tag:unity3d.com,2011:
--- !u!114 &11400000
MonoBehaviour:
  m_ObjectHideFlags: 0
  m_CorrespondingSourceObject: {fileID: 0}
  m_PrefabInstance: {fileID: 0}
  m_PrefabAsset: {fileID: 0}
  m_GameObject: {fileID: 0}
  m_Enabled: 1
  m_EditorHideFlags: 0
  m_Script: {fileID: 11500000, guid: f218be9518d33904abcd2331a665e74d, type: 3}
  m_Name: Pergunta_323
  m_EditorClassIdentifier: 
  _info: "\"Em qual dessas frases a conjun\xE7\xE3o \"\"e\"\" tem o papel de \"\"oposi\xE7\xE3o\"\"
    e n\xE3o de \"\"adi\xE7\xE3o\"\"?\""
  _answers:
  - _info: Eu queria sair para comer e beber
    _isCorrect: 0
  - _info: 'Comprei flores, chocolate e vinho '
    _isCorrect: 0
  - _info: Corri, corri e cheguei atrasada
    _isCorrect: 1
  - _info: 'Durante a semana, gosto de ler e estudar '
    _isCorrect: 0
  _useTimer: 1
  _timer: 10
  _answerType: 1
  _addScore: 10
  _questionImage: {fileID: 0}
