%YAML 1.1
%TAG !u! tag:unity3d.com,2011:
--- !u!114 &11400000
MonoBehaviour:
  m_ObjectHideFlags: 0
  m_CorrespondingSourceObject: {fileID: 0}
  m_PrefabInstance: {fileID: 0}
  m_PrefabAsset: {fileID: 0}
  m_GameObject: {fileID: 0}
  m_Enabled: 1
  m_EditorHideFlags: 0
  m_Script: {fileID: 11500000, guid: f218be9518d33904abcd2331a665e74d, type: 3}
  m_Name: Pergunta_141
  m_EditorClassIdentifier: 
  _info: "\xBFQu\xE9 frase presenta el verbo en el pret\xE9rito perfecto?"
  _answers:
  - _info: "Habr\xEDa podido tener m\xE1s cuidado"
    _isCorrect: 0
  - _info: He estado com Pedro hace um rato
    _isCorrect: 1
  - _info: "Hab\xEDa olvidado la hora de nuestra cita"
    _isCorrect: 0
  - _info: "Supongo que Mar\xEDa vendr\xE1 a mi cumple"
    _isCorrect: 0
  _useTimer: 1
  _timer: 10
  _answerType: 1
  _addScore: 10
  _questionImage: {fileID: 0}
