%YAML 1.1
%TAG !u! tag:unity3d.com,2011:
--- !u!114 &11400000
MonoBehaviour:
  m_ObjectHideFlags: 0
  m_CorrespondingSourceObject: {fileID: 0}
  m_PrefabInstance: {fileID: 0}
  m_PrefabAsset: {fileID: 0}
  m_GameObject: {fileID: 0}
  m_Enabled: 1
  m_EditorHideFlags: 0
  m_Script: {fileID: 11500000, guid: f218be9518d33904abcd2331a665e74d, type: 3}
  m_Name: Pergunta_179
  m_EditorClassIdentifier: 
  _info: De qual forma o capitalista pode aumentar seus lucros segundo a teoria Mais
    Valia Relativa?
  _answers:
  - _info: "Aumentando a jornada de trabalho dos oper\xE1rios"
    _isCorrect: 0
  - _info: Contratando mais trabalhadores para trabalhar em turnos variados
    _isCorrect: 0
  - _info: "Promover desenvolvimento de t\xE9cnicas para melhorar a produtividade"
    _isCorrect: 1
  - _info: "Aumento das puni\xE7\xF5es dadas aos oper\xE1rios que n\xE3o seguirem
      o ritmo imposto "
    _isCorrect: 0
  _useTimer: 1
  _timer: 10
  _answerType: 1
  _addScore: 10
  _questionImage: {fileID: 0}
