%YAML 1.1
%TAG !u! tag:unity3d.com,2011:
--- !u!114 &11400000
MonoBehaviour:
  m_ObjectHideFlags: 0
  m_CorrespondingSourceObject: {fileID: 0}
  m_PrefabInstance: {fileID: 0}
  m_PrefabAsset: {fileID: 0}
  m_GameObject: {fileID: 0}
  m_Enabled: 1
  m_EditorHideFlags: 0
  m_Script: {fileID: 11500000, guid: f218be9518d33904abcd2331a665e74d, type: 3}
  m_Name: Pergunta_177
  m_EditorClassIdentifier: 
  _info: "A teoria da Mais-Valia foi dividida em duas vertentes, a Absoluta e a Relativa
    Qual \xE9 a defini\xE7\xE3o correta delas?"
  _answers:
  - _info: 'Absoluto: intensificar o trabalho para aumentar a lucratividade da empresa'
    _isCorrect: 1
  - _info: 'Relativo: diminuir a jornada de trabalho para reduzir as despesas das
      empresas'
    _isCorrect: 0
  - _info: "Absoluto: aumentar a produtividade por meio de investimentos em m\xE1quinas"
    _isCorrect: 0
  - _info: 'Relativo: Aumentar a jornada de trabalho para aumentar o lucro da empresa'
    _isCorrect: 0
  _useTimer: 1
  _timer: 10
  _answerType: 1
  _addScore: 10
  _questionImage: {fileID: 0}
