%YAML 1.1
%TAG !u! tag:unity3d.com,2011:
--- !u!114 &11400000
MonoBehaviour:
  m_ObjectHideFlags: 0
  m_CorrespondingSourceObject: {fileID: 0}
  m_PrefabInstance: {fileID: 0}
  m_PrefabAsset: {fileID: 0}
  m_GameObject: {fileID: 0}
  m_Enabled: 1
  m_EditorHideFlags: 0
  m_Script: {fileID: 11500000, guid: f218be9518d33904abcd2331a665e74d, type: 3}
  m_Name: 4
  m_EditorClassIdentifier: 
  _info: "\xC9 o primeiro passo para que ocorra qualquer tipo de associa\xE7\xE3o
    humana:"
  _answers:
  - _info: contato social
    _isCorrect: 1
  - _info: fato social
    _isCorrect: 0
  - _info: "organiza\xE7\xE3o social"
    _isCorrect: 0
  - _info: grupo social
    _isCorrect: 0
  _useTimer: 1
  _timer: 10
  _answerType: 1
  _addScore: 10
